10/01/16 21:57

Error unzipping shell2.tar.gz:
	[Errno 2] No such file or directory: 'Tanner-Christensen/shell2.tar.gz'

-------------------------------------------------------

10/14/16 14:48

Error unzipping shell2.tar.gz:
	[Errno 2] No such file or directory: 'Tanner-Christensen/shell2.tar.gz'

-------------------------------------------------------

